{
    "metadata": {
        "streamsync_version": "0.1.6"
    },
    "components": {
        "root": {
            "id": "root",
            "type": "root",
            "content": {
                "appName": "My App"
            },
            "parentId": null,
            "position": 0,
            "handlers": {},
            "visible": true
        },
        "c0f99a9e-5004-4e75-a6c6-36f17490b134": {
            "id": "c0f99a9e-5004-4e75-a6c6-36f17490b134",
            "type": "page",
            "content": {
                "pageMode": "compact",
                "emptinessColor": "#ffffff"
            },
            "parentId": "root",
            "position": 0,
            "handlers": {}
        },
        "bebc5fe9-63a7-46a7-b0fa-62303555cfaf": {
            "id": "bebc5fe9-63a7-46a7-b0fa-62303555cfaf",
            "type": "header",
            "content": {
                "text": "@{my_app.title}",
                "accentColor": "#1a5fb4"
            },
            "parentId": "22873d21-cc13-41f1-89c3-ac4716822c41",
            "position": 0,
            "handlers": {}
        },
        "1df55a0c-f31c-4359-9347-e1bd71072482": {
            "id": "1df55a0c-f31c-4359-9347-e1bd71072482",
            "type": "section",
            "content": {
                "title": "LIGOLW Table: Postcoh",
                "snapMode": "no"
            },
            "parentId": "1aabc34b-a524-428c-befc-7feb8888fe73",
            "position": 0,
            "handlers": {},
            "visible": true
        },
        "700b0864-a885-41d3-9e61-4c4268edff31": {
            "id": "700b0864-a885-41d3-9e61-4c4268edff31",
            "type": "dataframe",
            "content": {
                "dataframe": "@{postcoh_df}"
            },
            "parentId": "1df55a0c-f31c-4359-9347-e1bd71072482",
            "position": 1,
            "handlers": {},
            "visible": "has_loaded_file"
        },
        "3db47010-8b41-4cb3-a6b3-b453ac200e10": {
            "id": "3db47010-8b41-4cb3-a6b3-b453ac200e10",
            "type": "image",
            "content": {
                "src": "@{snr_fig}",
                "caption": "SIgnal to Noise Ratio TImeseries for Active interferometers"
            },
            "parentId": "57899084-31c0-4fd7-a08e-8f3dad297a05",
            "position": 1,
            "handlers": {},
            "visible": "has_loaded_file"
        },
        "b0e551df-68e0-4bd9-8360-b3fb66fc258e": {
            "id": "b0e551df-68e0-4bd9-8360-b3fb66fc258e",
            "type": "image",
            "content": {
                "caption": "Power Spectral Density for Active Interferometers",
                "src": "@{psd_fig}"
            },
            "parentId": "5933c76a-c547-4ad5-8da4-eb0f6a0fdfc9",
            "position": 1,
            "handlers": {},
            "visible": "has_loaded_file"
        },
        "b917f494-bcaf-4209-9a36-ed8aefcc8b62": {
            "id": "b917f494-bcaf-4209-9a36-ed8aefcc8b62",
            "type": "tabs",
            "content": {
                "accentColor": "#000000"
            },
            "parentId": "c0f99a9e-5004-4e75-a6c6-36f17490b134",
            "position": 2,
            "handlers": {},
            "visible": true
        },
        "1aabc34b-a524-428c-befc-7feb8888fe73": {
            "id": "1aabc34b-a524-428c-befc-7feb8888fe73",
            "type": "tab",
            "content": {
                "name": "Tables"
            },
            "parentId": "b917f494-bcaf-4209-9a36-ed8aefcc8b62",
            "position": 1,
            "handlers": {},
            "visible": true
        },
        "0b76872b-39e9-4b13-b59f-bdb93e76268d": {
            "id": "0b76872b-39e9-4b13-b59f-bdb93e76268d",
            "type": "tab",
            "content": {
                "name": "PSD"
            },
            "parentId": "b917f494-bcaf-4209-9a36-ed8aefcc8b62",
            "position": 2,
            "handlers": {},
            "visible": true
        },
        "ffec5908-27c2-4559-be45-08774f5495e1": {
            "id": "ffec5908-27c2-4559-be45-08774f5495e1",
            "type": "tab",
            "content": {
                "name": "SNR Series"
            },
            "parentId": "b917f494-bcaf-4209-9a36-ed8aefcc8b62",
            "position": 3,
            "handlers": {},
            "visible": true
        },
        "5fab3cd2-6ea1-47fb-9874-e073a2d8bfd0": {
            "id": "5fab3cd2-6ea1-47fb-9874-e073a2d8bfd0",
            "type": "tab",
            "content": {
                "name": "Skymap"
            },
            "parentId": "b917f494-bcaf-4209-9a36-ed8aefcc8b62",
            "position": 4,
            "handlers": {},
            "visible": true
        },
        "85160a01-0435-4fd0-8fc1-b0cd962d1324": {
            "id": "85160a01-0435-4fd0-8fc1-b0cd962d1324",
            "type": "tab",
            "content": {
                "name": "P(Astro)"
            },
            "parentId": "b917f494-bcaf-4209-9a36-ed8aefcc8b62",
            "position": 5,
            "handlers": {},
            "visible": true
        },
        "57899084-31c0-4fd7-a08e-8f3dad297a05": {
            "id": "57899084-31c0-4fd7-a08e-8f3dad297a05",
            "type": "section",
            "content": {
                "title": "SNR Series: Signal-to-Noise Ratio Time Series",
                "snapMode": "no"
            },
            "parentId": "ffec5908-27c2-4559-be45-08774f5495e1",
            "position": 0,
            "handlers": {},
            "visible": true
        },
        "5933c76a-c547-4ad5-8da4-eb0f6a0fdfc9": {
            "id": "5933c76a-c547-4ad5-8da4-eb0f6a0fdfc9",
            "type": "section",
            "content": {
                "title": "PSD: Power Spectral Densities",
                "snapMode": "no"
            },
            "parentId": "0b76872b-39e9-4b13-b59f-bdb93e76268d",
            "position": 0,
            "handlers": {},
            "visible": true
        },
        "35f95e2e-0793-4aec-827f-1c0d47de9b38": {
            "id": "35f95e2e-0793-4aec-827f-1c0d47de9b38",
            "type": "section",
            "content": {
                "title": "SeALGW Skymap: Semi-Analytical Localization of Gravitational Waves",
                "snapMode": "no"
            },
            "parentId": "5fab3cd2-6ea1-47fb-9874-e073a2d8bfd0",
            "position": 0,
            "handlers": {},
            "visible": true
        },
        "6f5e66b0-b862-450e-a5a4-244df67aa9c6": {
            "id": "6f5e66b0-b862-450e-a5a4-244df67aa9c6",
            "type": "section",
            "content": {
                "title": "P(Astro): Astrophysical Source Classification",
                "snapMode": "no"
            },
            "parentId": "85160a01-0435-4fd0-8fc1-b0cd962d1324",
            "position": 0,
            "handlers": {},
            "visible": true
        },
        "cf978651-db80-4663-ae71-057c66a7bccd": {
            "id": "cf978651-db80-4663-ae71-057c66a7bccd",
            "type": "text",
            "content": {
                "text": "TO DO: Add sealgw.png from skymap results directory, if provided."
            },
            "parentId": "35f95e2e-0793-4aec-827f-1c0d47de9b38",
            "position": 0,
            "handlers": {},
            "visible": "has_loaded_file"
        },
        "a9b9333b-ac05-4863-b336-53bfd59dc9dc": {
            "id": "a9b9333b-ac05-4863-b336-53bfd59dc9dc",
            "type": "text",
            "content": {
                "text": "TO DO: Add p_astro visualisations from p_astro results directory, if provided.\n"
            },
            "parentId": "6f5e66b0-b862-450e-a5a4-244df67aa9c6",
            "position": 0,
            "handlers": {},
            "visible": "has_loaded_file"
        },
        "4de73ecc-de85-4a42-aed2-1e0445f034cc": {
            "id": "4de73ecc-de85-4a42-aed2-1e0445f034cc",
            "type": "separator",
            "content": {},
            "parentId": "c0f99a9e-5004-4e75-a6c6-36f17490b134",
            "position": 1,
            "handlers": {},
            "visible": true
        },
        "128f4b01-97d4-48ef-9d81-f6f56e3f2c80": {
            "id": "128f4b01-97d4-48ef-9d81-f6f56e3f2c80",
            "type": "image",
            "content": {
                "src": "static/spiir_logo.png",
                "caption": "",
                "maxHeight": "90"
            },
            "parentId": "fabea508-1789-420a-b9c2-a5ebcb372ee4",
            "position": 0,
            "handlers": {},
            "visible": true
        },
        "e737e934-46dc-46e1-9736-d45adef02262": {
            "id": "e737e934-46dc-46e1-9736-d45adef02262",
            "type": "sidebar",
            "content": {
                "startCollapsed": ""
            },
            "parentId": "c0f99a9e-5004-4e75-a6c6-36f17490b134",
            "position": -2,
            "handlers": {},
            "visible": true
        },
        "14738c1d-34ca-4b68-b857-b88813540ca8": {
            "id": "14738c1d-34ca-4b68-b857-b88813540ca8",
            "type": "tab",
            "content": {
                "name": "Summary"
            },
            "parentId": "b917f494-bcaf-4209-9a36-ed8aefcc8b62",
            "position": 0,
            "handlers": {},
            "visible": true
        },
        "11657b18-f2e9-41bc-96b6-53ceb93fd08d": {
            "id": "11657b18-f2e9-41bc-96b6-53ceb93fd08d",
            "type": "section",
            "content": {
                "title": "Trigger Summary",
                "snapMode": "no"
            },
            "parentId": "14738c1d-34ca-4b68-b857-b88813540ca8",
            "position": 0,
            "handlers": {},
            "visible": true
        },
        "d59f9374-2fd2-45cf-a1e5-89f660d367e6": {
            "id": "d59f9374-2fd2-45cf-a1e5-89f660d367e6",
            "type": "text",
            "content": {
                "text": "#### **Loaded File:** @{loaded_file}",
                "useMarkdown": "yes"
            },
            "parentId": "11657b18-f2e9-41bc-96b6-53ceb93fd08d",
            "position": 1,
            "handlers": {},
            "visible": true
        },
        "9ebf8bc7-a967-43e1-8116-b35e03b2e421": {
            "id": "9ebf8bc7-a967-43e1-8116-b35e03b2e421",
            "type": "image",
            "content": {
                "src": "static/spiir_logo.png",
                "caption": "",
                "maxHeight": "110"
            },
            "parentId": "e737e934-46dc-46e1-9736-d45adef02262",
            "position": 0,
            "handlers": {},
            "visible": true
        },
        "a55bea49-621d-4af1-9f61-7a636bbb4eac": {
            "id": "a55bea49-621d-4af1-9f61-7a636bbb4eac",
            "type": "button",
            "content": {
                "text": "Reset",
                "icon": "refresh"
            },
            "parentId": "f3ffc453-5005-446c-88f3-9c41ecb37fed",
            "position": 0,
            "handlers": {
                "click": "handle_reset_file"
            },
            "visible": true
        },
        "1a1ff306-38e1-4b4f-bd02-4265b24bca6d": {
            "id": "1a1ff306-38e1-4b4f-bd02-4265b24bca6d",
            "type": "columns",
            "content": {},
            "parentId": "e737e934-46dc-46e1-9736-d45adef02262",
            "position": 1,
            "handlers": {},
            "visible": true
        },
        "f3ffc453-5005-446c-88f3-9c41ecb37fed": {
            "id": "f3ffc453-5005-446c-88f3-9c41ecb37fed",
            "type": "column",
            "content": {
                "width": "",
                "verticalAlignment": "",
                "horizontalAlignment": "center",
                "startCollapsed": "",
                "isCollapsible": "",
                "isSticky": ""
            },
            "parentId": "1a1ff306-38e1-4b4f-bd02-4265b24bca6d",
            "position": 0,
            "handlers": {},
            "visible": true
        },
        "1c1ffb58-2a47-43e0-8e54-bca2ca3f7cc3": {
            "id": "1c1ffb58-2a47-43e0-8e54-bca2ca3f7cc3",
            "type": "button",
            "content": {
                "text": "Download",
                "icon": "download"
            },
            "parentId": "11657b18-f2e9-41bc-96b6-53ceb93fd08d",
            "position": 2,
            "handlers": {
                "click": "handle_download_loaded_file"
            },
            "visible": "has_loaded_file"
        },
        "ac6f6474-bf6a-4846-9b88-c1bf9ed19347": {
            "id": "ac6f6474-bf6a-4846-9b88-c1bf9ed19347",
            "type": "columns",
            "content": {},
            "parentId": "c0f99a9e-5004-4e75-a6c6-36f17490b134",
            "position": 0,
            "handlers": {},
            "visible": true
        },
        "0c270eac-29b5-4129-8a64-d1c7d91a2503": {
            "id": "0c270eac-29b5-4129-8a64-d1c7d91a2503",
            "type": "column",
            "content": {
                "width": "2",
                "verticalAlignment": "center"
            },
            "parentId": "ac6f6474-bf6a-4846-9b88-c1bf9ed19347",
            "position": 0,
            "handlers": {},
            "visible": true
        },
        "fabea508-1789-420a-b9c2-a5ebcb372ee4": {
            "id": "fabea508-1789-420a-b9c2-a5ebcb372ee4",
            "type": "column",
            "content": {
                "width": "1",
                "horizontalAlignment": "right",
                "verticalAlignment": "center"
            },
            "parentId": "ac6f6474-bf6a-4846-9b88-c1bf9ed19347",
            "position": 1,
            "handlers": {},
            "visible": true
        },
        "abcec257-41ae-403f-9423-4e6eefa08093": {
            "id": "abcec257-41ae-403f-9423-4e6eefa08093",
            "type": "columns",
            "content": {},
            "parentId": "0c270eac-29b5-4129-8a64-d1c7d91a2503",
            "position": 0,
            "handlers": {},
            "visible": true
        },
        "22873d21-cc13-41f1-89c3-ac4716822c41": {
            "id": "22873d21-cc13-41f1-89c3-ac4716822c41",
            "type": "column",
            "content": {
                "width": "3",
                "verticalAlignment": "center",
                "horizontalAlignment": "left"
            },
            "parentId": "abcec257-41ae-403f-9423-4e6eefa08093",
            "position": 0,
            "handlers": {},
            "visible": true
        },
        "df5e8197-ce93-4e21-a2c9-c1cc7835d7b4": {
            "id": "df5e8197-ce93-4e21-a2c9-c1cc7835d7b4",
            "type": "text",
            "content": {
                "text": "#### **Loaded File:** @{loaded_file}",
                "useMarkdown": "yes"
            },
            "parentId": "bebc5fe9-63a7-46a7-b0fa-62303555cfaf",
            "position": 0,
            "handlers": {},
            "visible": true
        },
        "85c1fdeb-6d1d-43e9-96b9-a125e76893d1": {
            "id": "85c1fdeb-6d1d-43e9-96b9-a125e76893d1",
            "type": "column",
            "content": {
                "width": "1",
                "horizontalAlignment": "center"
            },
            "parentId": "1a1ff306-38e1-4b4f-bd02-4265b24bca6d",
            "position": 1,
            "handlers": {},
            "visible": true
        },
        "2dabc41e-b5d2-4617-9a2b-138d3f91bef2": {
            "id": "2dabc41e-b5d2-4617-9a2b-138d3f91bef2",
            "type": "button",
            "content": {
                "text": "Load",
                "icon": "arrow-right"
            },
            "parentId": "85c1fdeb-6d1d-43e9-96b9-a125e76893d1",
            "position": 0,
            "handlers": {
                "click": "handle_load_file"
            },
            "visible": true
        },
        "2fcf62ba-2756-42af-9b9a-b4dc9959fb78": {
            "id": "2fcf62ba-2756-42af-9b9a-b4dc9959fb78",
            "type": "separator",
            "content": {},
            "parentId": "e737e934-46dc-46e1-9736-d45adef02262",
            "position": 2,
            "handlers": {},
            "visible": true
        },
        "916b76d1-e81d-4201-b5e7-481bdc62715f": {
            "id": "916b76d1-e81d-4201-b5e7-481bdc62715f",
            "type": "section",
            "content": {
                "title": "Triggers (coinc.xml)",
                "snapMode": "yes"
            },
            "parentId": "e737e934-46dc-46e1-9736-d45adef02262",
            "position": 3,
            "handlers": {},
            "visible": true
        },
        "ebb8969c-a8c0-4300-83b3-9ad85ab7f73c": {
            "id": "ebb8969c-a8c0-4300-83b3-9ad85ab7f73c",
            "type": "radioinput",
            "content": {
                "label": "",
                "options": "@{files}\n"
            },
            "parentId": "916b76d1-e81d-4201-b5e7-481bdc62715f",
            "position": 2,
            "handlers": {
                "ss-option-change": "handle_select_file"
            },
            "binding": {
                "eventType": "ss-option-change",
                "stateRef": "radio_input_select_key"
            }
        },
        "76e7aa9c-3dc5-445a-8f58-63d5f14018f4": {
            "id": "76e7aa9c-3dc5-445a-8f58-63d5f14018f4",
            "type": "separator",
            "content": {},
            "parentId": "916b76d1-e81d-4201-b5e7-481bdc62715f",
            "position": 0,
            "handlers": {},
            "visible": true
        },
        "3e1a32c2-e4a9-42bb-a25c-388ca04403de": {
            "id": "3e1a32c2-e4a9-42bb-a25c-388ca04403de",
            "type": "columns",
            "content": {},
            "parentId": "916b76d1-e81d-4201-b5e7-481bdc62715f",
            "position": 3,
            "handlers": {},
            "visible": true
        },
        "9e996ce4-8da9-48fd-8ee7-f710c4b49d77": {
            "id": "9e996ce4-8da9-48fd-8ee7-f710c4b49d77",
            "type": "column",
            "content": {
                "width": "1",
                "horizontalAlignment": "center"
            },
            "parentId": "3e1a32c2-e4a9-42bb-a25c-388ca04403de",
            "position": 0,
            "handlers": {},
            "visible": true
        },
        "1694aa8e-216f-467c-bdb9-9ff37bbe45cc": {
            "id": "1694aa8e-216f-467c-bdb9-9ff37bbe45cc",
            "type": "button",
            "content": {
                "text": "Download",
                "icon": "download"
            },
            "parentId": "9e996ce4-8da9-48fd-8ee7-f710c4b49d77",
            "position": 0,
            "handlers": {
                "click": "handle_download_selected_file"
            },
            "visible": "has_selected_file"
        },
        "5bf7a8fc-57d0-4819-94de-77157adfaf44": {
            "id": "5bf7a8fc-57d0-4819-94de-77157adfaf44",
            "type": "textinput",
            "content": {
                "label": "Directory:",
                "placeholder": ""
            },
            "parentId": "916b76d1-e81d-4201-b5e7-481bdc62715f",
            "position": 1,
            "handlers": {
                "ss-change": "update"
            },
            "binding": {
                "eventType": "ss-change",
                "stateRef": "coinc_dir"
            },
            "visible": true
        },
        "c7fe7688-f373-4c4f-b53c-7a05152c8db8": {
            "id": "c7fe7688-f373-4c4f-b53c-7a05152c8db8",
            "type": "separator",
            "content": {},
            "parentId": "11657b18-f2e9-41bc-96b6-53ceb93fd08d",
            "position": 0,
            "handlers": {},
            "visible": true
        },
        "f75dd1a5-0574-46d1-83a0-65d24cc72b2a": {
            "id": "f75dd1a5-0574-46d1-83a0-65d24cc72b2a",
            "type": "button",
            "content": {
                "text": "Download",
                "icon": "download"
            },
            "parentId": "57899084-31c0-4fd7-a08e-8f3dad297a05",
            "position": 0,
            "handlers": {
                "click": "handle_download_snr_fig"
            },
            "visible": "has_loaded_file"
        },
        "aaccf2dd-6b75-4fe4-81a2-132f25596bc3": {
            "id": "aaccf2dd-6b75-4fe4-81a2-132f25596bc3",
            "type": "button",
            "content": {
                "text": "Download",
                "icon": "download"
            },
            "parentId": "5933c76a-c547-4ad5-8da4-eb0f6a0fdfc9",
            "position": 0,
            "handlers": {
                "click": "handle_download_psd_fig"
            },
            "visible": "has_loaded_file"
        },
        "8d1fd3ee-e2f8-4230-8997-a8a3dbcded2f": {
            "id": "8d1fd3ee-e2f8-4230-8997-a8a3dbcded2f",
            "type": "button",
            "content": {
                "text": "Download",
                "icon": "download"
            },
            "parentId": "1df55a0c-f31c-4359-9347-e1bd71072482",
            "position": 0,
            "handlers": {
                "click": "handle_download_postcoh_csv"
            },
            "visible": "has_loaded_file"
        }
    }
}
